…
Check out 


```r
raw_911 <- read_csv("data/911/911-raw.csv", n_max = 5000) %>% 
  janitor::clean_names()
```


```r
raw_911 %>% 
  filter(str_detect(offense_description, coll("battery", T)))
#> # A tibble: 342 x 17
#>    incident_number offense_code offense_code_gr… offense_descrip… district
#>    <chr>           <chr>        <chr>            <chr>            <chr>   
#>  1 I192078613      00802        Simple Assault   ASSAULT SIMPLE … A7      
#>  2 I192078603      00802        Simple Assault   ASSAULT SIMPLE … A7      
#>  3 I192078600      00413        Aggravated Assa… ASSAULT - AGGRA… C11     
#>  4 I192078573      00802        Simple Assault   ASSAULT SIMPLE … B2      
#>  5 I192078563      00413        Aggravated Assa… ASSAULT - AGGRA… B3      
#>  6 I192078563      00802        Simple Assault   ASSAULT SIMPLE … B3      
#>  7 I192078538      00802        Simple Assault   ASSAULT SIMPLE … C6      
#>  8 I192078531      00802        Simple Assault   ASSAULT SIMPLE … C11     
#>  9 I192078530      00413        Aggravated Assa… ASSAULT - AGGRA… C6      
#> 10 I192078529      00413        Aggravated Assa… ASSAULT - AGGRA… E5      
#> # … with 332 more rows, and 12 more variables: reporting_area <dbl>,
#> #   shooting <chr>, occurred_on_date <dttm>, year <dbl>, month <dbl>,
#> #   day_of_week <chr>, hour <dbl>, ucr_part <chr>, street <chr>,
#> #   lat <dbl>, long <dbl>, location <chr>
```
…
