…
### `select()`ing exercises 

`select()` enables us to choose columns from a tibble based on their names. But remember that these will be unquoted column names. 

Try it:

- select the column `name` from `acs_raw`


```r
select(acs_raw, name)
## # A tibble: 1,478 x 1
##    name                                                 
##    <chr>                                                
##  1 Census Tract 7281, Worcester County, Massachusetts   
##  2 Census Tract 7292, Worcester County, Massachusetts   
##  3 Census Tract 7307, Worcester County, Massachusetts   
##  4 Census Tract 7442, Worcester County, Massachusetts   
##  5 Census Tract 7097.01, Worcester County, Massachusetts
##  6 Census Tract 7351, Worcester County, Massachusetts   
##  7 Census Tract 7543, Worcester County, Massachusetts   
##  8 Census Tract 7308.02, Worcester County, Massachusetts
##  9 Census Tract 7171, Worcester County, Massachusetts   
## 10 Census Tract 7326, Worcester County, Massachusetts   
## # … with 1,468 more rows
```

The column `name` was passed to `...`. Recall that dots allows us to pass "one ore more unquoted expressions separated by commas." To test this statement out, select `town` in addition to `name` from `acs_raw`

Try it:

- select `name` and `town` from `acs_raw`


```r
select(acs_raw, name, town)
## # A tibble: 1,478 x 2
##    name                                                  town         
##    <chr>                                                 <chr>        
##  1 Census Tract 7281, Worcester County, Massachusetts    HOLDEN       
##  2 Census Tract 7292, Worcester County, Massachusetts    WEST BOYLSTON
##  3 Census Tract 7307, Worcester County, Massachusetts    WORCESTER    
##  4 Census Tract 7442, Worcester County, Massachusetts    MILFORD      
##  5 Census Tract 7097.01, Worcester County, Massachusetts LEOMINSTER   
##  6 Census Tract 7351, Worcester County, Massachusetts    LEICESTER    
##  7 Census Tract 7543, Worcester County, Massachusetts    WEBSTER      
##  8 Census Tract 7308.02, Worcester County, Massachusetts WORCESTER    
##  9 Census Tract 7171, Worcester County, Massachusetts    BERLIN       
## 10 Census Tract 7326, Worcester County, Massachusetts    WORCESTER    
## # … with 1,468 more rows
```
…
Try it:

- select the columns `age_u18` through `age_o65`.


```r
select(acs_raw, age_u18:age_o65)
## # A tibble: 1,478 x 4
##    age_u18 age1834 age3564 age_o65
##      <dbl>   <dbl>   <dbl>   <dbl>
##  1   0.234   0.202   0.398   0.166
##  2   0.181   0.151   0.461   0.207
##  3   0.171   0.214   0.437   0.178
##  4   0.203   0.227   0.436   0.133
##  5   0.177   0.203   0.430   0.190
##  6   0.163   0.237   0.439   0.162
##  7   0.191   0.326   0.380   0.102
##  8   0.202   0.183   0.466   0.148
##  9   0.188   0.150   0.462   0.200
## 10   0.244   0.286   0.342   0.128
## # … with 1,468 more rows
```

Now to really throw you off! You can even reverse the order of these ranges. 

Try it:

- select columns from `age_o65` to `age_u18`.


```r
select(acs_raw, age_o65:age_u18)
## # A tibble: 1,478 x 4
##    age_o65 age3564 age1834 age_u18
##      <dbl>   <dbl>   <dbl>   <dbl>
##  1   0.166   0.398   0.202   0.234
##  2   0.207   0.461   0.151   0.181
##  3   0.178   0.437   0.214   0.171
##  4   0.133   0.436   0.227   0.203
##  5   0.190   0.430   0.203   0.177
##  6   0.162   0.439   0.237   0.163
##  7   0.102   0.380   0.326   0.191
##  8   0.148   0.466   0.183   0.202
##  9   0.200   0.462   0.150   0.188
## 10   0.128   0.342   0.286   0.244
## # … with 1,468 more rows
```

> NOTE: This is an awful scenario. SOMEONE HALP

Alright, so now we have gotten the hang of selecting columns based on their names. But equally important is the ability to select columns based on their position. Consider the situation in which you regularly receive georeferenced data from a research partner and the structure of the dataset is rather consistent _except_ that they frequently change the name of the coordinate columns. Sometimes the columns are `x` and `y`. Sometimes they are capitalized `X` and `Y`, `lon` and `lat`, or even `long` and `lat`. It eats you up inside! But you know that while the names may change, their positiions never do. You decide to program a solution rather than having a conversation with your research partner—though, I recommend you both level set on reproducibility standards.

 > "...You can treat variable names like they are positions..."
 
 The above was taken from the argument definition of dots `...`. Like providing the name of the column, we can also provide their positions (also referred to as an index). In our previous example, we selected the `name` column. We can select this column by it's position. `name` is the second column in our tibble. We select it like so:


```r
select(acs_raw, 2)
## # A tibble: 1,478 x 1
##    name                                                 
##    <chr>                                                
##  1 Census Tract 7281, Worcester County, Massachusetts   
##  2 Census Tract 7292, Worcester County, Massachusetts   
##  3 Census Tract 7307, Worcester County, Massachusetts   
##  4 Census Tract 7442, Worcester County, Massachusetts   
##  5 Census Tract 7097.01, Worcester County, Massachusetts
##  6 Census Tract 7351, Worcester County, Massachusetts   
##  7 Census Tract 7543, Worcester County, Massachusetts   
##  8 Census Tract 7308.02, Worcester County, Massachusetts
##  9 Census Tract 7171, Worcester County, Massachusetts   
## 10 Census Tract 7326, Worcester County, Massachusetts   
## # … with 1,468 more rows
```

Try it:

- select `age_u18` and `age_o65` by their position


```r
select(acs_raw, 6, 9)
## # A tibble: 1,478 x 2
##    age_u18 age_o65
##      <dbl>   <dbl>
##  1   0.234   0.166
##  2   0.181   0.207
##  3   0.171   0.178
##  4   0.203   0.133
##  5   0.177   0.190
##  6   0.163   0.162
##  7   0.191   0.102
##  8   0.202   0.148
##  9   0.188   0.200
## 10   0.244   0.128
## # … with 1,468 more rows
```

You may see where I am going with this. Just like column names, we can select a range of columns using the same method `index_from:index_to`.

Try it:

- select the columns from `age_u18` to `age_o65` using `:` and the column position
- select the columns in reverse order by their indexes 


```r
select(acs_raw, 6:9)
## # A tibble: 1,478 x 4
##    age_u18 age1834 age3564 age_o65
##      <dbl>   <dbl>   <dbl>   <dbl>
##  1   0.234   0.202   0.398   0.166
##  2   0.181   0.151   0.461   0.207
##  3   0.171   0.214   0.437   0.178
##  4   0.203   0.227   0.436   0.133
##  5   0.177   0.203   0.430   0.190
##  6   0.163   0.237   0.439   0.162
##  7   0.191   0.326   0.380   0.102
##  8   0.202   0.183   0.466   0.148
##  9   0.188   0.150   0.462   0.200
## 10   0.244   0.286   0.342   0.128
## # … with 1,468 more rows
```


```r
select(acs_raw, 9:6)
## # A tibble: 1,478 x 4
##    age_o65 age3564 age1834 age_u18
##      <dbl>   <dbl>   <dbl>   <dbl>
##  1   0.166   0.398   0.202   0.234
##  2   0.207   0.461   0.151   0.181
##  3   0.178   0.437   0.214   0.171
##  4   0.133   0.436   0.227   0.203
##  5   0.190   0.430   0.203   0.177
##  6   0.162   0.439   0.237   0.163
##  7   0.102   0.380   0.326   0.191
##  8   0.148   0.466   0.183   0.202
##  9   0.200   0.462   0.150   0.188
## 10   0.128   0.342   0.286   0.244
## # … with 1,468 more rows
```
…
### `select()` exercises

- try using the select function on `acs_raw` without passing any column specifications to `...`


```r
select(acs_raw)
```

- select the median house hold income column (`med_house_income`)


```r
select(acs_raw, med_house_income)
## # A tibble: 1,478 x 1
##    med_house_income
##               <dbl>
##  1           105735
##  2            69625
##  3            70679
##  4            74528
##  5            52885
##  6            64100
##  7            37093
##  8            87750
##  9            97417
## 10            43384
## # … with 1,468 more rows
```


- as the documentation notes we can select a range of columns using `col_x:col_y`
- select the columns relating to education from less than high school to doctoral


```r
select(acs_raw, less_than_hs:doc)
## # A tibble: 1,478 x 7
##    less_than_hs hs_grad some_coll  bach master     prof     doc
##           <dbl>   <dbl>     <dbl> <dbl>  <dbl>    <dbl>   <dbl>
##  1       0.0252   0.196     0.221 0.325 0.159  0.0405   0.0333 
##  2       0.0577   0.253     0.316 0.262 0.0971 0.00983  0.00491
##  3       0.0936   0.173     0.273 0.267 0.121  0.0397   0.0332 
##  4       0.0843   0.253     0.353 0.231 0.0671 0.00616  0.00481
##  5       0.145    0.310     0.283 0.168 0.0879 0.00343  0.00158
##  6       0.0946   0.294     0.317 0.192 0.0858 0.0161   0      
##  7       0.253    0.394     0.235 0.101 0.0155 0.000484 0      
##  8       0.0768   0.187     0.185 0.272 0.145  0.0569   0.0782 
##  9       0.0625   0.254     0.227 0.284 0.127  0.0223   0.0236 
## 10       0.207    0.362     0.262 0.124 0.0353 0        0.00972
## # … with 1,468 more rows
```

- though you will likely not use it too often, it's still important to be comfortable with column index (position) selecting
- select the 1st, 5th, and 10th columns


```r
select(acs_raw, 1, 5, 10)
## # A tibble: 1,478 x 3
##       ct_id_10 sex_ratio for_born
##          <dbl>     <dbl>    <dbl>
##  1 25027728100     1.13    0.0438
##  2 25027729200     1.32    0.0873
##  3 25027730700     1.13    0.206 
##  4 25027744200     1.12    0.155 
##  5 25027709701     1.30    0.106 
##  6 25027735100     1.11    0.0280
##  7 25027754300     1.25    0.188 
##  8 25027730802     0.908   0.198 
##  9 25027717100     0.990   0.0797
## 10 25027732600     1.19    0.210 
## # … with 1,468 more rows
```

#### tidyselect helpers

- we use the tidyselect helpers in the `...` argument
- `starts_with()`: a string to search that columns start with
  - find all columns that start with `"med"`


```r
select(acs_raw, starts_with("med"))
## # A tibble: 1,478 x 7
##    med_house_income med_gross_rent med_home_val med_yr_built_raw
##               <dbl>          <dbl>        <dbl>            <dbl>
##  1           105735           1640       349000             1988
##  2            69625            894       230200             1955
##  3            70679           1454       207200             1959
##  4            74528            954       268400             1973
##  5            52885           1018       223200             1964
##  6            64100            867       232700             1966
##  7            37093            910       170900             1939
##  8            87750           1088       270100             1939
##  9            97417           1037       379600             1981
## 10            43384           1017       156500             1939
## # … with 1,468 more rows, and 3 more variables: med_yr_built <chr>,
## #   med_yr_moved_inraw <dbl>, med_yr_rent_moved_in <dbl>
```

- `ends_with()`: a string to search that columns end with
  - select columns that end with `"per"`


```r
select(acs_raw, ends_with("per"))
## # A tibble: 1,478 x 8
##    fam_pov_per fam_house_per fem_head_per same_sex_coup_p… grand_head_per
##          <dbl>         <dbl>        <dbl>            <dbl>          <dbl>
##  1      0.0475         0.797       0.0899            0            0      
##  2      0.0652         0.698       0.120             0            0.00583
##  3      0.0584         0.659       0.114             0            0      
##  4      0.0249         0.657       0.121             0            0      
##  5      0.198          0.531       0.158             0            0.00946
##  6      0.0428         0.665       0.0603            0            0.0353 
##  7      0.0762         0.632       0.227             0            0.00643
##  8      0.101          0.636       0.0582            0.297        0.0260 
##  9      0.0149         0.758       0.0721            0            0.00434
## 10      0.0954         0.460       0.225             0            0.0279 
## # … with 1,468 more rows, and 3 more variables: vacant_unit_per <dbl>,
## #   renters_per <dbl>, home_own_per <dbl>
```

- `contains()`: a string to search for in the column headers
  - the string that we are searching for can be at any position
  - find any column that contains the string `"yr"`


```r
select(acs_raw, contains("yr"))
## # A tibble: 1,478 x 4
##    med_yr_built_raw med_yr_built  med_yr_moved_inraw med_yr_rent_moved_in
##               <dbl> <chr>                      <dbl>                <dbl>
##  1             1988 1980 to 1989                2004                 2012
##  2             1955 1950 to 1959                2003                 2010
##  3             1959 1950 to 1959                2007                 2012
##  4             1973 1970 to 1979                2006                 2011
##  5             1964 1960 to 1969                2006                 2011
##  6             1966 1960 to 1969                2000                 2009
##  7             1939 Prior to 1940               2011                 2012
##  8             1939 Prior to 1940               2006                 2012
##  9             1981 1980 to 1989                2004                 2012
## 10             1939 Prior to 1940               2011                   NA
## # … with 1,468 more rows
```

- `everything()`: helpful when you want to move some columns to the front and dont care about the order of others
  - takes no arguments
  - select the town, county, then everything else


```r
select(acs_raw, town, county, everything())
## # A tibble: 1,478 x 59
##    town  county ct_id_10 name  total_pop pop_den sex_ratio age_u18 age1834
##    <chr> <chr>     <dbl> <chr>     <dbl>   <dbl>     <dbl>   <dbl>   <dbl>
##  1 HOLD… WORCE…  2.50e10 Cens…      4585    333.     1.13    0.234   0.202
##  2 WEST… WORCE…  2.50e10 Cens…      2165   1070.     1.32    0.181   0.151
##  3 WORC… WORCE…  2.50e10 Cens…      6917   2113.     1.13    0.171   0.214
##  4 MILF… WORCE…  2.50e10 Cens…      7278   1346.     1.12    0.203   0.227
##  5 LEOM… WORCE…  2.50e10 Cens…      5059   2894.     1.30    0.177   0.203
##  6 LEIC… WORCE…  2.50e10 Cens…      6632    472.     1.11    0.163   0.237
##  7 WEBS… WORCE…  2.50e10 Cens…      3259   8022.     1.25    0.191   0.326
##  8 WORC… WORCE…  2.50e10 Cens…      2097   5191.     0.908   0.202   0.183
##  9 BERL… WORCE…  2.50e10 Cens…      3098    239.     0.990   0.188   0.150
## 10 WORC… WORCE…  2.50e10 Cens…      3982  17065.     1.19    0.244   0.286
## # … with 1,468 more rows, and 50 more variables: age3564 <dbl>,
## #   age_o65 <dbl>, for_born <dbl>, white <dbl>, black <dbl>, asian <dbl>,
## #   hispanic <dbl>, two_or_more <dbl>, eth_het <dbl>,
## #   med_house_income <dbl>, pub_assist <dbl>, gini <dbl>,
## #   fam_pov_per <dbl>, unemp_rate <dbl>, total_house_h <dbl>,
## #   fam_house_per <dbl>, fem_head_per <dbl>, same_sex_coup_per <dbl>,
## #   grand_head_per <dbl>, less_than_hs <dbl>, hs_grad <dbl>,
## #   some_coll <dbl>, bach <dbl>, master <dbl>, prof <dbl>, doc <dbl>,
## #   commute_less10 <dbl>, commute1030 <dbl>, commute3060 <dbl>,
…
## Selecting Rows

like we can select columns we can also select rows. however rows do not have names. we select the rows based on position
unlike select, if we do not specify any arguments to `...` it will return the entire data frame


```r
slice(acs_raw)
## # A tibble: 1,478 x 59
##    ct_id_10 name  total_pop pop_den sex_ratio age_u18 age1834 age3564
##       <dbl> <chr>     <dbl>   <dbl>     <dbl>   <dbl>   <dbl>   <dbl>
##  1  2.50e10 Cens…      4585    333.     1.13    0.234   0.202   0.398
##  2  2.50e10 Cens…      2165   1070.     1.32    0.181   0.151   0.461
##  3  2.50e10 Cens…      6917   2113.     1.13    0.171   0.214   0.437
##  4  2.50e10 Cens…      7278   1346.     1.12    0.203   0.227   0.436
##  5  2.50e10 Cens…      5059   2894.     1.30    0.177   0.203   0.430
##  6  2.50e10 Cens…      6632    472.     1.11    0.163   0.237   0.439
##  7  2.50e10 Cens…      3259   8022.     1.25    0.191   0.326   0.380
##  8  2.50e10 Cens…      2097   5191.     0.908   0.202   0.183   0.466
##  9  2.50e10 Cens…      3098    239.     0.990   0.188   0.150   0.462
## 10  2.50e10 Cens…      3982  17065.     1.19    0.244   0.286   0.342
## # … with 1,468 more rows, and 51 more variables: age_o65 <dbl>,
## #   for_born <dbl>, white <dbl>, black <dbl>, asian <dbl>, hispanic <dbl>,
## #   two_or_more <dbl>, eth_het <dbl>, med_house_income <dbl>,
## #   pub_assist <dbl>, gini <dbl>, fam_pov_per <dbl>, unemp_rate <dbl>,
## #   total_house_h <dbl>, fam_house_per <dbl>, fem_head_per <dbl>,
## #   same_sex_coup_per <dbl>, grand_head_per <dbl>, less_than_hs <dbl>,
## #   hs_grad <dbl>, some_coll <dbl>, bach <dbl>, master <dbl>, prof <dbl>,
## #   doc <dbl>, commute_less10 <dbl>, commute1030 <dbl>, commute3060 <dbl>,
## #   commute6090 <dbl>, commute_over90 <dbl>, by_auto <dbl>,
## #   by_pub_trans <dbl>, by_bike <dbl>, by_walk <dbl>,
## #   total_house_units <dbl>, vacant_unit_per <dbl>, renters_per <dbl>,
## #   home_own_per <dbl>, med_gross_rent <dbl>, med_home_val <dbl>,
## #   med_yr_built_raw <dbl>, med_yr_built <chr>, med_yr_moved_inraw <dbl>,
## #   med_yr_rent_moved_in <dbl>, area_acres <dbl>, town_id <dbl>,
## #   town <chr>, fips_stco <dbl>, county <chr>, area_acr_1 <dbl>,
## #   m_atown <chr>
```

positive integers


```r
slice(acs_raw)
## # A tibble: 1,478 x 59
##    ct_id_10 name  total_pop pop_den sex_ratio age_u18 age1834 age3564
##       <dbl> <chr>     <dbl>   <dbl>     <dbl>   <dbl>   <dbl>   <dbl>
##  1  2.50e10 Cens…      4585    333.     1.13    0.234   0.202   0.398
##  2  2.50e10 Cens…      2165   1070.     1.32    0.181   0.151   0.461
##  3  2.50e10 Cens…      6917   2113.     1.13    0.171   0.214   0.437
##  4  2.50e10 Cens…      7278   1346.     1.12    0.203   0.227   0.436
##  5  2.50e10 Cens…      5059   2894.     1.30    0.177   0.203   0.430
##  6  2.50e10 Cens…      6632    472.     1.11    0.163   0.237   0.439
##  7  2.50e10 Cens…      3259   8022.     1.25    0.191   0.326   0.380
##  8  2.50e10 Cens…      2097   5191.     0.908   0.202   0.183   0.466
##  9  2.50e10 Cens…      3098    239.     0.990   0.188   0.150   0.462
## 10  2.50e10 Cens…      3982  17065.     1.19    0.244   0.286   0.342
## # … with 1,468 more rows, and 51 more variables: age_o65 <dbl>,
## #   for_born <dbl>, white <dbl>, black <dbl>, asian <dbl>, hispanic <dbl>,
## #   two_or_more <dbl>, eth_het <dbl>, med_house_income <dbl>,
## #   pub_assist <dbl>, gini <dbl>, fam_pov_per <dbl>, unemp_rate <dbl>,
## #   total_house_h <dbl>, fam_house_per <dbl>, fem_head_per <dbl>,
## #   same_sex_coup_per <dbl>, grand_head_per <dbl>, less_than_hs <dbl>,
## #   hs_grad <dbl>, some_coll <dbl>, bach <dbl>, master <dbl>, prof <dbl>,
## #   doc <dbl>, commute_less10 <dbl>, commute1030 <dbl>, commute3060 <dbl>,
## #   commute6090 <dbl>, commute_over90 <dbl>, by_auto <dbl>,
…
