…
`filter()` works similarly to `select()`. The first argument is of course the tibble which you would like to subset. Secondly, we again see `...`. In the case of `filter()`, we provide what are called logical expressions to `...`. `filter()` then only returns the observations when that logical expression, or condition, is true. 

I would go out on a limb here and say that almost every time you purchase something online whether that is via Amazon Prime or Etsy you are filtering your data using some logic. Whether that is checking the Prime tick box, specifying a price range on Etsy, or a restaurant rating on Yelp. These are all _conditions_ that you are providing to your search. 

We can create these types of filters on our own data and to do so, we will need to understand how logical expressions work. A logical expression is any expression that can be boiled down to true or false. 

For example, using our `commute` dataset, we can check to see which Census Tracts have more than 75% of commuters travelling by auto.


```r
filter(commute, by_auto > 0.75)
```

```
## # A tibble: 1,012 x 11
##    name  commute_less10 commute1030 commute3060 commute6090 commute_over90
##    <chr>          <dbl>       <dbl>       <dbl>       <dbl>          <dbl>
##  1 Cens…         0.0787       0.513       0.331      0.0556         0.0214
##  2 Cens…         0.251        0.464       0.181      0.0822         0.0219
##  3 Cens…         0.0537       0.662       0.177      0.0868         0.0203
##  4 Cens…         0.141        0.394       0.313      0.133          0.0194
##  5 Cens…         0.175        0.511       0.203      0.0704         0.0411
##  6 Cens…         0.109        0.440       0.330      0.0830         0.0378
##  7 Cens…         0.189        0.457       0.303      0.0346         0.0166
##  8 Cens…         0.187        0.560       0.133      0.0839         0.0358
##  9 Cens…         0.139        0.455       0.256      0.126          0.0246
## 10 Cens…         0.0912       0.649       0.218      0.0179         0.0235
## # … with 1,002 more rows, and 5 more variables: by_auto <dbl>,
## #   by_pub_trans <dbl>, by_bike <dbl>, by_walk <dbl>,
## #   med_house_income <dbl>
```
…
The power of logical operators isn't necessarily in the ability to compare one value against another, but the ability to compare many values to one value or even many values to multiple other values. This is what `filter()` helps us do.

Using `filter()` we can compare one column to another. When we do this, the values of those columns at each row are compared. For example, we can identify all of the Census Tracts where people walk more than they drive. 

> Note: I am saving the results to an object called `walk` to then select only a few columns.


```r
walking <- filter(commute, by_walk > by_auto)

select(walking, name, by_walk, by_auto)
```

```
## # A tibble: 54 x 3
##    name                                                  by_walk by_auto
##    <chr>                                                   <dbl>   <dbl>
##  1 Census Tract 8212, Hampshire County, Massachusetts      0.652  0.0993
##  2 Census Tract 8208.02, Hampshire County, Massachusetts   0.632  0.0985
##  3 Census Tract 8204, Hampshire County, Massachusetts      0.580  0.189 
##  4 Census Tract 8220, Hampshire County, Massachusetts      0.613  0.143 
##  5 Census Tract 8206, Hampshire County, Massachusetts      0.625  0.0916
##  6 Census Tract 3537, Middlesex County, Massachusetts      0.427  0.213 
##  7 Census Tract 3539, Middlesex County, Massachusetts      0.545  0.142 
##  8 Census Tract 3540, Middlesex County, Massachusetts      0.372  0.287 
##  9 Census Tract 3541, Middlesex County, Massachusetts      0.299  0.240 
## 10 Census Tract 202, Suffolk County, Massachusetts         0.548  0.105 
## # … with 44 more rows
```
…
### scenario

- The non-profit has emailed you back and indicated that they want to report on the income quintiles and requested that you do this for them. You're a rockstar and a kickass programmer so you're like, hell yah. 
- they also ask for:
  - tract
  - a combined measure of bach masters and doctoral
  

```r
acs_raw %>% 
  mutate(hh_inc_quin = ntile(med_house_income, 5))
```

```
## # A tibble: 1,478 x 60
##    ct_id_10 name  total_pop pop_den sex_ratio age_u18 age1834 age3564
##       <dbl> <chr>     <dbl>   <dbl>     <dbl>   <dbl>   <dbl>   <dbl>
##  1  2.50e10 Cens…      4585    333.     1.13    0.234   0.202   0.398
##  2  2.50e10 Cens…      2165   1070.     1.32    0.181   0.151   0.461
##  3  2.50e10 Cens…      6917   2113.     1.13    0.171   0.214   0.437
##  4  2.50e10 Cens…      7278   1346.     1.12    0.203   0.227   0.436
##  5  2.50e10 Cens…      5059   2894.     1.30    0.177   0.203   0.430
##  6  2.50e10 Cens…      6632    472.     1.11    0.163   0.237   0.439
##  7  2.50e10 Cens…      3259   8022.     1.25    0.191   0.326   0.380
##  8  2.50e10 Cens…      2097   5191.     0.908   0.202   0.183   0.466
##  9  2.50e10 Cens…      3098    239.     0.990   0.188   0.150   0.462
## 10  2.50e10 Cens…      3982  17065.     1.19    0.244   0.286   0.342
## # … with 1,468 more rows, and 52 more variables: age_o65 <dbl>,
## #   for_born <dbl>, white <dbl>, black <dbl>, asian <dbl>, hispanic <dbl>,
## #   two_or_more <dbl>, eth_het <dbl>, med_house_income <dbl>,
## #   pub_assist <dbl>, gini <dbl>, fam_pov_per <dbl>, unemp_rate <dbl>,
## #   total_house_h <dbl>, fam_house_per <dbl>, fem_head_per <dbl>,
## #   same_sex_coup_per <dbl>, grand_head_per <dbl>, less_than_hs <dbl>,
## #   hs_grad <dbl>, some_coll <dbl>, bach <dbl>, master <dbl>, prof <dbl>,
## #   doc <dbl>, commute_less10 <dbl>, commute1030 <dbl>, commute3060 <dbl>,
## #   commute6090 <dbl>, commute_over90 <dbl>, by_auto <dbl>,
…
