…
Frankly this alone is somewhat unimpressive. The power of `summarise()` comes from incorporating `group_by()` into the function chain. `group_by()` allows us to explicitly identify groups within a tibble as defined by a given variable. The resulting tibble from a `group_by()` call is seemingly unchanged. 


```r
commute %>% 
  group_by(county)
#> # A tibble: 648 x 14
#> # Groups:   county [3]
#>    county hs_grad  bach master commute_less10 commute1030 commute3060
#>    <chr>    <dbl> <dbl>  <dbl>          <dbl>       <dbl>       <dbl>
#>  1 MIDDL…   0.389 0.188 0.100          0.0916       0.357       0.375
#>  2 MIDDL…   0.167 0.400 0.130          0.0948       0.445       0.344
#>  3 MIDDL…   0.184 0.317 0.139          0.0720       0.404       0.382
#>  4 MIDDL…   0.258 0.322 0.144          0.0983       0.390       0.379
#>  5 MIDDL…   0.301 0.177 0.0742         0.0670       0.379       0.365
#>  6 MIDDL…   0.159 0.310 0.207          0.0573       0.453       0.352
#>  7 MIDDL…   0.268 0.247 0.149          0.0791       0.475       0.368
#>  8 MIDDL…   0.261 0.300 0.126          0.137        0.450       0.337
#>  9 MIDDL…   0.315 0.198 0.140          0.0752       0.478       0.329
#> 10 MIDDL…   0.151 0.348 0.151          0.0830       0.474       0.322
#> # … with 638 more rows, and 7 more variables: commute6090 <dbl>,
#> #   commute_over90 <dbl>, by_auto <dbl>, by_pub_trans <dbl>, by_bike <dbl>,
#> #   by_walk <dbl>, med_house_income <dbl>
```
…
> Note: a tibble has the classes `tbl` and `tbl_df` on top of the Base R class `data.frame`.

When a tibble has this object class, dplyr knows that operations should be grouped. For example if you were to calculate the mean, this would be the mean for the specified groups rather than the mean for the entire dataset. 
One function that is extremely useful is the `n()` function to identify how many observations there are per group inside of a mutate call.

> I am including the `commute3060` column to illustrate that the new `n` column will be the same for each group value. 


```r
commute %>% 
  group_by(county) %>% 
  mutate(n = n()) %>% 
  select(county, commute3060, n) 
#> # A tibble: 648 x 3
#> # Groups:   county [3]
#>    county    commute3060     n
#>    <chr>           <dbl> <int>
#>  1 MIDDLESEX       0.375   318
#>  2 MIDDLESEX       0.344   318
#>  3 MIDDLESEX       0.382   318
#>  4 MIDDLESEX       0.379   318
#>  5 MIDDLESEX       0.365   318
#>  6 MIDDLESEX       0.352   318
#>  7 MIDDLESEX       0.368   318
#>  8 MIDDLESEX       0.337   318
#>  9 MIDDLESEX       0.329   318
#> 10 MIDDLESEX       0.322   318
#> # … with 638 more rows
```
…
