…
```r
raw_911 %>% 
  count(offense_code_group)
## # A tibble: 68 x 2
##    offense_code_group                   n
##    <chr>                            <int>
##  1 Aggravated Assault               10687
##  2 Aircraft                            60
##  3 Arson                              109
##  4 Assembly or Gathering Violations  1143
##  5 Auto Theft                        6211
##  6 Auto Theft Recovery               1385
##  7 Ballistics                        1338
##  8 Biological Threat                    3
##  9 Bomb Hoax                          109
## 10 Burglary - No Property Taken         5
## # … with 58 more rows
```

- There are fewer types of code groups. 
- They are rather informative.
- 33k missing observations though
- is the same amount of missingness present in the descriptions?


```r
raw_911 %>% 
  count(offense_description)
## # A tibble: 279 x 2
##    offense_description                              n
##    <chr>                                        <int>
##  1 A&B HANDS, FEET, ETC.  - MED. ATTENTION REQ.     1
##  2 A&B ON POLICE OFFICER                            7
##  3 ABDUCTION - INTICING                            12
##  4 AFFRAY                                         318
##  5 AIRCRAFT INCIDENTS                              70
##  6 ANIMAL ABUSE                                    89
##  7 ANIMAL CONTROL - DOG BITES - ETC.              493
##  8 ANIMAL INCIDENTS                               388
##  9 ANIMAL INCIDENTS (DOG BITES, LOST DOG, ETC)     34
## 10 ANNOYING AND ACCOSTIN                            3
## # … with 269 more rows
```
…
