Chapter 10 General data manipulation | Urban Informatics Toolkit
…
selecting by position

select helpers

10.2.2 select()ing exercises

select() enables us to choose columns from a tibble based on their names. But remember that these will be unquoted column names.

Try it:

select the column name from acs_raw

select(acs_raw, name)
#> # A tibble: 1,478 x 1
#>    name                                                 
#>    <chr>                                                
#>  1 Census Tract 7281, Worcester County, Massachusetts   
#>  2 Census Tract 7292, Worcester County, Massachusetts   
#>  3 Census Tract 7307, Worcester County, Massachusetts   
#>  4 Census Tract 7442, Worcester County, Massachusetts   
#>  5 Census Tract 7097.01, Worcester County, Massachusetts
#>  6 Census Tract 7351, Worcester County, Massachusetts   
#>  7 Census Tract 7543, Worcester County, Massachusetts   
#>  8 Census Tract 7308.02, Worcester County, Massachusetts
#>  9 Census Tract 7171, Worcester County, Massachusetts   
#> 10 Census Tract 7326, Worcester County, Massachusetts   
#> # … with 1,468 more rows

The column name was passed to .... Recall that dots allows us to pass “one ore more unquoted expressions separated by commas.” To test this statement out, select town in addition to name from acs_raw

Try it:

select name and town from acs_raw

select(acs_raw, name, town)
#> # A tibble: 1,478 x 2
#>    name                                                  town         
#>    <chr>                                                 <chr>        
#>  1 Census Tract 7281, Worcester County, Massachusetts    HOLDEN       
#>  2 Census Tract 7292, Worcester County, Massachusetts    WEST BOYLSTON
#>  3 Census Tract 7307, Worcester County, Massachusetts    WORCESTER    
#>  4 Census Tract 7442, Worcester County, Massachusetts    MILFORD      
#>  5 Census Tract 7097.01, Worcester County, Massachusetts LEOMINSTER   
#>  6 Census Tract 7351, Worcester County, Massachusetts    LEICESTER    
#>  7 Census Tract 7543, Worcester County, Massachusetts    WEBSTER      
#>  8 Census Tract 7308.02, Worcester County, Massachusetts WORCESTER    
#>  9 Census Tract 7171, Worcester County, Massachusetts    BERLIN       
#> 10 Census Tract 7326, Worcester County, Massachusetts    WORCESTER    
#> # … with 1,468 more rows
…
Try it:

select the columns age_u18 through age_o65.

select(acs_raw, age_u18:age_o65)
#> # A tibble: 1,478 x 4
#>    age_u18 age1834 age3564 age_o65
#>      <dbl>   <dbl>   <dbl>   <dbl>
#>  1   0.234   0.202   0.398   0.166
#>  2   0.181   0.151   0.461   0.207
#>  3   0.171   0.214   0.437   0.178
#>  4   0.203   0.227   0.436   0.133
#>  5   0.177   0.203   0.430   0.190
#>  6   0.163   0.237   0.439   0.162
#>  7   0.191   0.326   0.380   0.102
#>  8   0.202   0.183   0.466   0.148
#>  9   0.188   0.150   0.462   0.200
#> 10   0.244   0.286   0.342   0.128
#> # … with 1,468 more rows

Now to really throw you off! You can even reverse the order of these ranges.

Try it:

select columns from age_o65 to age_u18.

select(acs_raw, age_o65:age_u18)
#> # A tibble: 1,478 x 4
#>    age_o65 age3564 age1834 age_u18
#>      <dbl>   <dbl>   <dbl>   <dbl>
#>  1   0.166   0.398   0.202   0.234
#>  2   0.207   0.461   0.151   0.181
#>  3   0.178   0.437   0.214   0.171
#>  4   0.133   0.436   0.227   0.203
#>  5   0.190   0.430   0.203   0.177
#>  6   0.162   0.439   0.237   0.163
#>  7   0.102   0.380   0.326   0.191
#>  8   0.148   0.466   0.183   0.202
#>  9   0.200   0.462   0.150   0.188
#> 10   0.128   0.342   0.286   0.244
#> # … with 1,468 more rows

NOTE: This is an awful scenario. SOMEONE HALP

Alright, so now we have gotten the hang of selecting columns based on their names. But equally important is the ability to select columns based on their position. Consider the situation in which you regularly receive georeferenced data from a research partner and the structure of the dataset is rather consistent except that they frequently change the name of the coordinate columns. Sometimes the columns are x and y. Sometimes they are capitalized X and Y, lon and lat, or even long and lat. It eats you up inside! But you know that while the names may change, their positiions never do—they’re always the last two columns. You decide to program a solution rather than having a conversation with your research partner—though, I recommend you both level set on reproducibility standards.

“…You can treat variable names like they are positions…”

The above was taken from the argument definition of dots .... Like providing the name of the column, we can also provide their positions (also referred to as an index). In our previous example, we selected the name column. We can select this column by it’s position too. name is the second column in our tibble. We select it by position like so:

select(acs_raw, 2)
#> # A tibble: 1,478 x 1
#>    name                                                 
#>    <chr>                                                
#>  1 Census Tract 7281, Worcester County, Massachusetts   
#>  2 Census Tract 7292, Worcester County, Massachusetts   
#>  3 Census Tract 7307, Worcester County, Massachusetts   
#>  4 Census Tract 7442, Worcester County, Massachusetts   
#>  5 Census Tract 7097.01, Worcester County, Massachusetts
#>  6 Census Tract 7351, Worcester County, Massachusetts   
#>  7 Census Tract 7543, Worcester County, Massachusetts   
#>  8 Census Tract 7308.02, Worcester County, Massachusetts
#>  9 Census Tract 7171, Worcester County, Massachusetts   
#> 10 Census Tract 7326, Worcester County, Massachusetts   
#> # … with 1,468 more rows

Try it:

select age_u18 and age_o65 by their position

select(acs_raw, 6, 9)
#> # A tibble: 1,478 x 2
#>    age_u18 age_o65
#>      <dbl>   <dbl>
#>  1   0.234   0.166
#>  2   0.181   0.207
#>  3   0.171   0.178
#>  4   0.203   0.133
#>  5   0.177   0.190
#>  6   0.163   0.162
#>  7   0.191   0.102
#>  8   0.202   0.148
#>  9   0.188   0.200
#> 10   0.244   0.128
#> # … with 1,468 more rows

You may see where I am going with this. Just like column names, we can select a range of columns using the same method index_from:index_to.

Try it:

select the columns from age_u18 to age_o65 using : and the column position

select the columns in reverse order by their indexes

select(acs_raw, 6:9)
#> # A tibble: 1,478 x 4
#>    age_u18 age1834 age3564 age_o65
#>      <dbl>   <dbl>   <dbl>   <dbl>
#>  1   0.234   0.202   0.398   0.166
#>  2   0.181   0.151   0.461   0.207
#>  3   0.171   0.214   0.437   0.178
#>  4   0.203   0.227   0.436   0.133
#>  5   0.177   0.203   0.430   0.190
#>  6   0.163   0.237   0.439   0.162
#>  7   0.191   0.326   0.380   0.102
#>  8   0.202   0.183   0.466   0.148
#>  9   0.188   0.150   0.462   0.200
#> 10   0.244   0.286   0.342   0.128
#> # … with 1,468 more rows

select(acs_raw, 9:6)
#> # A tibble: 1,478 x 4
#>    age_o65 age3564 age1834 age_u18
#>      <dbl>   <dbl>   <dbl>   <dbl>
#>  1   0.166   0.398   0.202   0.234
#>  2   0.207   0.461   0.151   0.181
#>  3   0.178   0.437   0.214   0.171
#>  4   0.133   0.436   0.227   0.203
#>  5   0.190   0.430   0.203   0.177
#>  6   0.162   0.439   0.237   0.163
#>  7   0.102   0.380   0.326   0.191
#>  8   0.148   0.466   0.183   0.202
#>  9   0.200   0.462   0.150   0.188
#> 10   0.128   0.342   0.286   0.244
#> # … with 1,468 more rows

Base R Side Bar: To help build your intuition, I want to point out some base R functionality. Using the colon : with integers (whole numbers) is actually not a select() specific functionality. This is something that is rather handy and built directly into R. Using the colon operator, we can create ranges of numbers in the same exact way as we did above. If we want create the range of numbers from 1 to 10, we write 1:10. 1, 2, 3, 4, 5, 6, 7, 8, 9, 10.

In our scenario, we want to select the last two columns. We may not know their names or their position. Luckily, there’s a function for that.

last_col() is a handy function that enables us to select the last column. There is also an option to get an offset from the last column. An offset would allow us to grab the second to last column by setting the offset to 1. By setting the offset, last_col() will from the offset + 1 from the last column. So if the offset is set to 1, we would be grabbing the second to last column.

Let’s give it a shot:

select(acs_raw, last_col())
#> # A tibble: 1,478 x 1
#>    m_atown      
#>    <chr>        
#>  1 HOLDEN       
#>  2 WEST BOYLSTON
#>  3 WORCESTER    
#>  4 MILFORD      
#>  5 LEOMINSTER   
#>  6 LEICESTER    
#>  7 WEBSTER      
#>  8 WORCESTER    
#>  9 BERLIN       
#> 10 WORCESTER    
#> # … with 1,468 more rows
select(acs_raw, last_col(offset = 1))
#> # A tibble: 1,478 x 1
#>    area_acr_1
#>         <dbl>
#>  1     23242.
#>  2      8868.
#>  3     24610.
#>  4      9616.
#>  5     18993.
#>  6     15763.
#>  7      9347.
#>  8     24610.
#>  9      8431.
#> 10     24610.
#> # … with 1,468 more rows
select(acs_raw, last_col(offset = 1):last_col())
#> # A tibble: 1,478 x 2
#>    area_acr_1 m_atown      
#>         <dbl> <chr>        
#>  1     23242. HOLDEN       
#>  2      8868. WEST BOYLSTON
#>  3     24610. WORCESTER    
#>  4      9616. MILFORD      
#>  5     18993. LEOMINSTER   
#>  6     15763. LEICESTER    
#>  7      9347. WEBSTER      
#>  8     24610. WORCESTER    
#>  9      8431. BERLIN       
#> 10     24610. WORCESTER    
#> # … with 1,468 more rows
…
ends_with(): a string to search that columns end with

contains(): a string to search for in the column names at any position

everything(): selects the remaining columns

Each of these function take a character string and searches the column headers for them.

Try it out:

find all columns that start with "med"

select(acs_raw, starts_with("med"))
#> # A tibble: 1,478 x 7
#>    med_house_income med_gross_rent med_home_val med_yr_built_raw med_yr_built
#>               <dbl>          <dbl>        <dbl>            <dbl> <chr>       
#>  1           105735           1640       349000             1988 1980 to 1989
#>  2            69625            894       230200             1955 1950 to 1959
#>  3            70679           1454       207200             1959 1950 to 1959
#>  4            74528            954       268400             1973 1970 to 1979
#>  5            52885           1018       223200             1964 1960 to 1969
#>  6            64100            867       232700             1966 1960 to 1969
#>  7            37093            910       170900             1939 Prior to 19…
#>  8            87750           1088       270100             1939 Prior to 19…
#>  9            97417           1037       379600             1981 1980 to 1989
#> 10            43384           1017       156500             1939 Prior to 19…
#> # … with 1,468 more rows, and 2 more variables: med_yr_moved_inraw <dbl>,
#> #   med_yr_rent_moved_in <dbl>

select columns that end with "per"

select(acs_raw, ends_with("per"))
#> # A tibble: 1,478 x 8
#>    fam_pov_per fam_house_per fem_head_per same_sex_coup_p… grand_head_per
#>          <dbl>         <dbl>        <dbl>            <dbl>          <dbl>
#>  1      0.0475         0.797       0.0899            0            0      
#>  2      0.0652         0.698       0.120             0            0.00583
#>  3      0.0584         0.659       0.114             0            0      
#>  4      0.0249         0.657       0.121             0            0      
#>  5      0.198          0.531       0.158             0            0.00946
#>  6      0.0428         0.665       0.0603            0            0.0353 
#>  7      0.0762         0.632       0.227             0            0.00643
#>  8      0.101          0.636       0.0582            0.297        0.0260 
#>  9      0.0149         0.758       0.0721            0            0.00434
#> 10      0.0954         0.460       0.225             0            0.0279 
#> # … with 1,468 more rows, and 3 more variables: vacant_unit_per <dbl>,
#> #   renters_per <dbl>, home_own_per <dbl>

find any column that contains the string "yr"

select(acs_raw, contains("yr"))
#> # A tibble: 1,478 x 4
#>    med_yr_built_raw med_yr_built  med_yr_moved_inraw med_yr_rent_moved_in
#>               <dbl> <chr>                      <dbl>                <dbl>
#>  1             1988 1980 to 1989                2004                 2012
#>  2             1955 1950 to 1959                2003                 2010
#>  3             1959 1950 to 1959                2007                 2012
#>  4             1973 1970 to 1979                2006                 2011
#>  5             1964 1960 to 1969                2006                 2011
#>  6             1966 1960 to 1969                2000                 2009
#>  7             1939 Prior to 1940               2011                 2012
#>  8             1939 Prior to 1940               2006                 2012
#>  9             1981 1980 to 1989                2004                 2012
#> 10             1939 Prior to 1940               2011                   NA
#> # … with 1,468 more rows

select columns that start with med then select everything else

select(acs_raw, contains("yr"), everything())
#> # A tibble: 1,478 x 59
#>    med_yr_built_raw med_yr_built med_yr_moved_in… med_yr_rent_mov… ct_id_10
#>               <dbl> <chr>                   <dbl>            <dbl>    <dbl>
#>  1             1988 1980 to 1989             2004             2012  2.50e10
#>  2             1955 1950 to 1959             2003             2010  2.50e10
#>  3             1959 1950 to 1959             2007             2012  2.50e10
#>  4             1973 1970 to 1979             2006             2011  2.50e10
#>  5             1964 1960 to 1969             2006             2011  2.50e10
#>  6             1966 1960 to 1969             2000             2009  2.50e10
#>  7             1939 Prior to 19…             2011             2012  2.50e10
#>  8             1939 Prior to 19…             2006             2012  2.50e10
#>  9             1981 1980 to 1989             2004             2012  2.50e10
#> 10             1939 Prior to 19…             2011               NA  2.50e10
#> # … with 1,468 more rows, and 54 more variables: name <chr>, total_pop <dbl>,
#> #   pop_den <dbl>, sex_ratio <dbl>, age_u18 <dbl>, age1834 <dbl>,
#> #   age3564 <dbl>, age_o65 <dbl>, for_born <dbl>, white <dbl>, black <dbl>,
#> #   asian <dbl>, hispanic <dbl>, two_or_more <dbl>, eth_het <dbl>,
#> #   med_house_income <dbl>, pub_assist <dbl>, gini <dbl>, fam_pov_per <dbl>,
#> #   unemp_rate <dbl>, total_house_h <dbl>, fam_house_per <dbl>,
#> #   fem_head_per <dbl>, same_sex_coup_per <dbl>, grand_head_per <dbl>,
#> #   less_than_hs <dbl>, hs_grad <dbl>, some_coll <dbl>, bach <dbl>,
#> #   master <dbl>, prof <dbl>, doc <dbl>, commute_less10 <dbl>,
…
