Chapter 8 Reading data | Urban Informatics Toolkit
…
Now, read the acs_edu.csv file!

read_csv(file = "data/acs_edu.csv") 
#> Parsed with column specification:
#> cols(
#>   med_house_income = col_double(),
#>   less_than_hs = col_double(),
#>   hs_grad = col_double(),
#>   some_coll = col_double(),
#>   bach = col_double(),
#>   white = col_double(),
#>   black = col_double()
#> )
#> # A tibble: 1,456 x 7
#>    med_house_income less_than_hs hs_grad some_coll  bach white   black
#>               <dbl>        <dbl>   <dbl>     <dbl> <dbl> <dbl>   <dbl>
#>  1           105735       0.0252   0.196     0.221 0.325 0.897 0.0122 
#>  2            69625       0.0577   0.253     0.316 0.262 0.885 0.0171 
#>  3            70679       0.0936   0.173     0.273 0.267 0.733 0.0795 
#>  4            74528       0.0843   0.253     0.353 0.231 0.824 0.0306 
#>  5            52885       0.145    0.310     0.283 0.168 0.737 0.0605 
#>  6            64100       0.0946   0.294     0.317 0.192 0.966 0.00256
#>  7            37093       0.253    0.394     0.235 0.101 0.711 0.0770 
#>  8            87750       0.0768   0.187     0.185 0.272 0.759 0.0310 
#>  9            97417       0.0625   0.254     0.227 0.284 0.969 0.00710
#> 10            43384       0.207    0.362     0.262 0.124 0.460 0.105  
#> # … with 1,446 more rows

This is really good! Except, all that happened was that the function was ran. The data it imported was not saved anywhere which means we will not be able to interact with it. What we saw was the output of the data. In order to interact with the data we need to assign it to an object.

Reminder: we assign object with the assignment operator <-—i.e. new_obj <- read_csv("file-path.csv"). Objects are things that we interact with such as a tibble. Functions such as read_csv() usually, but not always, modify or create objects.

In order to interact with the data, let us store the output into a tibble object called acs.

acs <- read_csv(file = "data/acs_edu.csv") 

Notice how now there was no data printed in the console. This is a good sign! It means that R read the data and stored it properly into the acs object. When we don’t store the function results, the results are (usually) printed out. To print an object, we can just type it’s name into the console.

acs
#> # A tibble: 1,456 x 7
#>    med_house_income less_than_hs hs_grad some_coll  bach white   black
#>               <dbl>        <dbl>   <dbl>     <dbl> <dbl> <dbl>   <dbl>
#>  1           105735       0.0252   0.196     0.221 0.325 0.897 0.0122 
#>  2            69625       0.0577   0.253     0.316 0.262 0.885 0.0171 
#>  3            70679       0.0936   0.173     0.273 0.267 0.733 0.0795 
#>  4            74528       0.0843   0.253     0.353 0.231 0.824 0.0306 
#>  5            52885       0.145    0.310     0.283 0.168 0.737 0.0605 
#>  6            64100       0.0946   0.294     0.317 0.192 0.966 0.00256
#>  7            37093       0.253    0.394     0.235 0.101 0.711 0.0770 
#>  8            87750       0.0768   0.187     0.185 0.272 0.759 0.0310 
#>  9            97417       0.0625   0.254     0.227 0.284 0.969 0.00710
#> 10            43384       0.207    0.362     0.262 0.124 0.460 0.105  
#> # … with 1,446 more rows
…
