Chapter 26 Spatial Analysis | Urban Informatics Toolkit
…
Generally when we cast objects we use functions like as.integer() or as_tibble(). Here, there is a prefixed st_. This stands for spatial transformation. All transformations are prefixed as such—this is in an effort to keep continuity between GIS tools. Most functions cast objects to other classes with no function arguments. st_as_sf() unfortunately cannot read your mind and is not aware of what the geometry is in the tibble. As such, we need to use the coords argument in st_as_sf(). coords gives us the ability to tell sf what the columns are that contain our coordinate points. For point data we need to provide a character vector of length two with the x and y dimensions aka longitude and latitude.

Note that we are likely used to saying lat, long, but that actually maps to y, x. This is something that trips everyone up! Just make sure you put longitude in the x spot and latitude in the y spot.

To convert the locations data frame to a simple feature we will use st_as_sf() and set the coords argument to c("longitude", "latitude").

st_as_sf(locations,
         coords = c("longitude", "latitude"))

## Simple feature collection with 3799 features and 1 field
## geometry type:  POINT
## dimension:      XY
## bbox:           xmin: -71.1728 ymin: 42.23576 xmax: -70.99595 ymax: 42.39549
## CRS:            NA
## # A tibble: 3,799 x 2
##       id             geometry
##    <dbl>              <POINT>
##  1  3781 (-71.02991 42.36413)
##  2  5506 (-71.09559 42.32981)
##  3  6695 (-71.09351 42.32994)
##  4  8789 (-71.06265 42.35919)
##  5 10730  (-71.06185 42.3584)
##  6 10813 (-71.08904 42.34961)
##  7 10986 (-71.05075 42.36352)
##  8 16384  (-71.07132 42.3581)
##  9 18711 (-71.06096 42.32212)
## 10 22195  (-71.0793 42.34558)
## # … with 3,789 more rows
…
We will now create an object called loc_sf using st_as_sf() and providing both the coords and the crs.

loc_sf <- st_as_sf(locations,
         coords = c("longitude", "latitude"),
         crs = 4326)

loc_sf

## Simple feature collection with 3799 features and 1 field
## geometry type:  POINT
## dimension:      XY
## bbox:           xmin: -71.1728 ymin: 42.23576 xmax: -70.99595 ymax: 42.39549
## CRS:            EPSG:4326
## # A tibble: 3,799 x 2
##       id             geometry
##  * <dbl>          <POINT [°]>
##  1  3781 (-71.02991 42.36413)
##  2  5506 (-71.09559 42.32981)
##  3  6695 (-71.09351 42.32994)
##  4  8789 (-71.06265 42.35919)
##  5 10730  (-71.06185 42.3584)
##  6 10813 (-71.08904 42.34961)
##  7 10986 (-71.05075 42.36352)
##  8 16384  (-71.07132 42.3581)
##  9 18711 (-71.06096 42.32212)
## 10 22195  (-71.0793 42.34558)
## # … with 3,789 more rows
…
Now that we have the point locations of each Airbnb listing we need to identify which tracts they belong to. In the data folder there is a file called suffolk_acs.geojson. This is a common spatial data format which is based on json. The difference is that geojson contains a lot of fields specific to spatial data.

Reading in data of this format is just as easy as in reading in a csv file. Using sf::read_sf() we can pass the path of the geojson file and be returned an sf object.

acs_tracts <- read_sf("data/suffolk_acs.geojson")

acs_tracts

## Simple feature collection with 203 features and 1 field
## geometry type:  MULTIPOLYGON
## dimension:      XY
## bbox:           xmin: -71.19125 ymin: 42.22793 xmax: -70.9201 ymax: 42.45012
## CRS:            4326
## # A tibble: 203 x 2
##    fips                                                                 geometry
##    <chr>                                                      <MULTIPOLYGON [°]>
##  1 250250921… (((-71.06249 42.29221, -71.06234 42.29273, -71.06226 42.29301, -7…
##  2 250251006… (((-71.05147 42.28931, -71.05136 42.28933, -71.05032 42.28961, -7…
##  3 250250101… (((-71.11093 42.35047, -71.11093 42.3505, -71.11092 42.35054, -71…
##  4 250250704… (((-71.06944 42.346, -71.0691 42.34661, -71.06884 42.3471, -71.06…
##  5 250251401… (((-71.13397 42.25431, -71.13353 42.25476, -71.13274 42.25561, -7…
##  6 250259812… (((-71.04707 42.3397, -71.04628 42.34037, -71.0449 42.34153, -71.…
##  7 250250511… (((-71.01324 42.38301, -71.01231 42.38371, -71.01162 42.3842, -71…
##  8 250259816… (((-71.00113 42.3871, -71.001 42.38722, -71.00074 42.3875, -71.00…
##  9 250250909… (((-71.05079 42.32083, -71.0506 42.32076, -71.05047 42.32079, -71…
## 10 250251103… (((-71.11952 42.28648, -71.11949 42.2878, -71.11949 42.28792, -71…
## # … with 193 more rows
…
Let’s try using st_join() to join the tract level information to our point data.

points_join <- st_join(loc_sf, acs_tracts) 

## although coordinates are longitude/latitude, st_intersects assumes that they are planar
## although coordinates are longitude/latitude, st_intersects assumes that they are planar

points_join

## Simple feature collection with 3799 features and 2 fields
## geometry type:  POINT
## dimension:      XY
## bbox:           xmin: -71.1728 ymin: 42.23576 xmax: -70.99595 ymax: 42.39549
## CRS:            EPSG:4326
## # A tibble: 3,799 x 3
##       id             geometry fips       
##  * <dbl>          <POINT [°]> <chr>      
##  1  3781 (-71.02991 42.36413) 25025051200
##  2  5506 (-71.09559 42.32981) 25025081400
##  3  6695 (-71.09351 42.32994) 25025081400
##  4  8789 (-71.06265 42.35919) 25025030300
##  5 10730  (-71.06185 42.3584) 25025030300
##  6 10813 (-71.08904 42.34961) 25025010104
##  7 10986 (-71.05075 42.36352) 25025030300
##  8 16384  (-71.07132 42.3581) 25025020101
##  9 18711 (-71.06096 42.32212) 25025090700
## 10 22195  (-71.0793 42.34558) 25025010600
## # … with 3,789 more rows
…
It is the same as before. What we would like to do at this moment is to plot the tracts and color by the number of listings contained in them. This means that we need to change up the order of our join.

polygon_join <- st_join(acs_tracts, loc_sf)
polygon_join

## Simple feature collection with 3814 features and 2 fields
## geometry type:  MULTIPOLYGON
## dimension:      XY
## bbox:           xmin: -71.19125 ymin: 42.22793 xmax: -70.9201 ymax: 42.45012
## CRS:            4326
## # A tibble: 3,814 x 3
##    fips                                                         geometry      id
##  * <chr>                                              <MULTIPOLYGON [°]>   <dbl>
##  1 25025092… (((-71.06249 42.29221, -71.06234 42.29273, -71.06226 42.29…  3.63e6
##  2 25025092… (((-71.06249 42.29221, -71.06234 42.29273, -71.06226 42.29…  7.22e6
##  3 25025092… (((-71.06249 42.29221, -71.06234 42.29273, -71.06226 42.29…  7.29e6
##  4 25025092… (((-71.06249 42.29221, -71.06234 42.29273, -71.06226 42.29…  3.36e7
##  5 25025092… (((-71.06249 42.29221, -71.06234 42.29273, -71.06226 42.29…  3.63e7
##  6 25025092… (((-71.06249 42.29221, -71.06234 42.29273, -71.06226 42.29…  3.89e7
##  7 25025092… (((-71.06249 42.29221, -71.06234 42.29273, -71.06226 42.29…  4.02e7
##  8 25025092… (((-71.06249 42.29221, -71.06234 42.29273, -71.06226 42.29…  4.18e7
##  9 25025100… (((-71.05147 42.28931, -71.05136 42.28933, -71.05032 42.28…  2.64e7
## 10 25025100… (((-71.05147 42.28931, -71.05136 42.28933, -71.05032 42.28…  3.77e7
## # … with 3,804 more rows

Notice that there are 3,814 rows! That is well over the original 193 tracts. If we tried plotting this right away we may overwork R. What we need to do is count the number of observations per fips code first.

tract_listings <- count(polygon_join, fips)

tract_listings

## Simple feature collection with 203 features and 2 fields
## geometry type:  MULTIPOLYGON
## dimension:      XY
## bbox:           xmin: -71.19125 ymin: 42.22793 xmax: -70.9201 ymax: 42.45012
## CRS:            4326
## # A tibble: 203 x 3
##    fips           n                                                     geometry
##  * <chr>      <int>                                           <MULTIPOLYGON [°]>
##  1 250250001…    53 (((-71.1609 42.35863, -71.16049 42.35881, -71.16021 42.3589…
##  2 250250002…    18 (((-71.16782 42.35328, -71.16775 42.35351, -71.16764 42.353…
##  3 250250002…     4 (((-71.16057 42.35267, -71.16018 42.35269, -71.16005 42.352…
##  4 250250003…    19 (((-71.1748 42.35051, -71.17475 42.35066, -71.17471 42.3508…
##  5 250250003…    19 (((-71.17458 42.35024, -71.17287 42.35005, -71.17283 42.350…
##  6 250250004…    16 (((-71.15473 42.34121, -71.15455 42.34156, -71.15436 42.341…
##  7 250250004…    23 (((-71.16613 42.34043, -71.16612 42.34059, -71.16611 42.340…
##  8 250250005…    18 (((-71.16922 42.33807, -71.16909 42.33825, -71.16894 42.338…
##  9 250250005…    16 (((-71.15336 42.33819, -71.15308 42.33833, -71.15296 42.338…
## 10 250250005…     9 (((-71.1501 42.33719, -71.14984 42.33767, -71.14966 42.3379…
## # … with 193 more rows
…
