Chapter 15 Summary statistics | Urban Informatics Toolkit
…
15 Summary statistics

The last chapter we focused on the underlying data structures that we interact with in R. Most importantly we covered the atomic vector data structure and learned that the columns of a tibble are vectors. When we have been using mutate() to create new columns, we have actually been creating other vectors. When we have filtered data, we have checked the values of the underlying vectors to see if they have matched our specified conditions. Moving forward, we will begin to think about ways of summarizing our data. To do so we will be working with vectors more often. Being able to understand the role a vector plays in data frame operations will make this learning process even easier.

Let us start by asking the question “what is a statistic?” Very simply a statistic is a single number that is used to characterize a sample of data. Most often we see statistics used to describe central tendancy and spread—measures like the mean and standard deviation. However, the ways in which we can characterize a sample of data are not restricted to traditional frequentists statistics. We want to be more creative in the ways that we look at our data. In addition to evaluating central tendancy and spread we may find ourselves looking at the average word counts of tweets, or distances from the Boston Common, and so much more.

When we begin to summarize data, we are taking all observations or maybe a subset of observations and calculating one value to represent that sample. This is very important framing to have. Whenever we want to create an aggregate measure of our data there must be only one observation per-subset. Meaning, if you have a data frame with 150 rows and 3 groups within that, there ought to be only three resultant observations—though there may be many more variables.

Let us revisit the commute, and specifically the rate of commuters who travel between 30 and 60 minutes.

library(tidyverse)
library(uitk)

commute
#> # A tibble: 648 x 14
#>    county hs_grad  bach master commute_less10 commute1030 commute3060
#>    <chr>    <dbl> <dbl>  <dbl>          <dbl>       <dbl>       <dbl>
#>  1 MIDDL…   0.389 0.188 0.100          0.0916       0.357       0.375
#>  2 MIDDL…   0.167 0.400 0.130          0.0948       0.445       0.344
#>  3 MIDDL…   0.184 0.317 0.139          0.0720       0.404       0.382
#>  4 MIDDL…   0.258 0.322 0.144          0.0983       0.390       0.379
#>  5 MIDDL…   0.301 0.177 0.0742         0.0670       0.379       0.365
#>  6 MIDDL…   0.159 0.310 0.207          0.0573       0.453       0.352
#>  7 MIDDL…   0.268 0.247 0.149          0.0791       0.475       0.368
#>  8 MIDDL…   0.261 0.300 0.126          0.137        0.450       0.337
#>  9 MIDDL…   0.315 0.198 0.140          0.0752       0.478       0.329
#> 10 MIDDL…   0.151 0.348 0.151          0.0830       0.474       0.322
#> # … with 638 more rows, and 7 more variables: commute6090 <dbl>,
#> #   commute_over90 <dbl>, by_auto <dbl>, by_pub_trans <dbl>, by_bike <dbl>,
#> #   by_walk <dbl>, med_house_income <dbl>
…
