Chapter 16 summarizing the tidy way | Urban Informatics Toolkit
…
Frankly this alone is somewhat unimpressive. The power of summarise() comes from incorporating group_by() into the function chain. group_by() allows us to explicitly identify groups within a tibble as defined by a given variable. The resulting tibble from a group_by() call is seemingly unchanged.

commute %>% 
  group_by(county)
#> # A tibble: 1,478 x 11
#> # Groups:   county [15]
#>    county commute_less10 commute1030 commute3060 commute6090 commute_over90
#>    <chr>           <dbl>       <dbl>       <dbl>       <dbl>          <dbl>
#>  1 WORCE…         0.0787       0.513       0.331      0.0556         0.0214
#>  2 WORCE…         0.251        0.464       0.181      0.0822         0.0219
#>  3 WORCE…         0.0537       0.662       0.177      0.0868         0.0203
#>  4 WORCE…         0.141        0.394       0.313      0.133          0.0194
#>  5 WORCE…         0.175        0.511       0.203      0.0704         0.0411
#>  6 WORCE…         0.109        0.440       0.330      0.0830         0.0378
#>  7 WORCE…         0.189        0.457       0.303      0.0346         0.0166
#>  8 WORCE…         0.187        0.560       0.133      0.0839         0.0358
#>  9 WORCE…         0.139        0.455       0.256      0.126          0.0246
#> 10 WORCE…         0.0912       0.649       0.218      0.0179         0.0235
#> # … with 1,468 more rows, and 5 more variables: by_auto <dbl>,
#> #   by_pub_trans <dbl>, by_bike <dbl>, by_walk <dbl>, med_house_income <dbl>
…
Note: a tibble has the classes tbl and tbl_df in addition

When a tibble has this object class, dplyr knows that operations should be grouped. For example if you were to calculate the mean, this would be the mean for the specified groups rather than the mean for the entire dataset.

We can use the n() function to identify how many observations there are per group inside of a mutate call.

I am including the commute3060 column to illustrate that the new n column will be the same for each group value.

commute %>% 
  group_by(county) %>% 
  mutate(n = n()) %>% 
  select(county, commute3060, n) 
#> # A tibble: 1,478 x 3
#> # Groups:   county [15]
#>    county    commute3060     n
#>    <chr>           <dbl> <int>
#>  1 WORCESTER       0.331   172
#>  2 WORCESTER       0.181   172
#>  3 WORCESTER       0.177   172
#>  4 WORCESTER       0.313   172
#>  5 WORCESTER       0.203   172
#>  6 WORCESTER       0.330   172
#>  7 WORCESTER       0.303   172
#>  8 WORCESTER       0.133   172
#>  9 WORCESTER       0.256   172
#> 10 WORCESTER       0.218   172
#> # … with 1,468 more rows
…
