Chapter 11 That’s too much data | Urban Informatics Toolkit
…
Explore the help documentation of filter() by running the command ?filter() in your console.

The first argument of filter() is of course the tibble which you would like to subset. Secondly, we again see .... In the case of filter(), we provide what are called logical expressions to .... filter() then only returns the observations when that logical expression, or condition, is true.

Almost every time you purchase something online whether that is from Amazon or Etsy you are filtering your data using some logic. Whether that is checking the Prime tick box, specifying a price range on Etsy, or a restaurant rating on Yelp. These are all conditions that you are providing to your search.

We can create these types of filters on our own data and to do so, we will need to understand how logical expressions work. A logical expression is any expression that can be boiled down to true or false.

For example, using our commute dataset, we can check to see which Census Tracts have more than 75% of commuters traveling by auto.

auto_commuters <- filter(commute, by_auto > 0.75)

select(auto_commuters, by_auto)

## # A tibble: 1,012 x 1
##    by_auto
##      <dbl>
##  1   0.927
##  2   0.970
##  3   0.925
##  4   0.904
##  5   0.899
##  6   0.911
##  7   0.810
##  8   0.851
##  9   0.900
## 10   0.787
## # … with 1,002 more rows
…
## [1] TRUE

The power of logical operators isn’t necessarily in the ability to compare one value against another, but the ability to compare many values to one value or even many values to multiple other values. This is what filter() helps us do.

Using filter() we can compare one column to another. When we do this, the values of those columns at each row are compared. For example, we can identify all of the Census Tracts where people walk more than they drive.

Note: I am saving the results to an object called walk to then select only a few columns.

walking <- filter(commute, by_walk > by_auto)

select(walking, county, by_walk, by_auto)

## # A tibble: 54 x 3
##    county    by_walk by_auto
##    <chr>       <dbl>   <dbl>
##  1 HAMPSHIRE   0.652  0.0993
##  2 HAMPSHIRE   0.632  0.0985
##  3 HAMPSHIRE   0.580  0.189 
##  4 HAMPSHIRE   0.613  0.143 
##  5 HAMPSHIRE   0.625  0.0916
##  6 MIDDLESEX   0.427  0.213 
##  7 MIDDLESEX   0.545  0.142 
##  8 MIDDLESEX   0.372  0.287 
##  9 MIDDLESEX   0.299  0.240 
## 10 SUFFOLK     0.548  0.105 
## # … with 44 more rows
…
## [1] TRUE

# 
FALSE | FALSE

## [1] FALSE

We can alter the previous filter() statement to show us places that walk more than they drive or have a low median household income.

low_inc_or_walk <- filter(commute,
                          by_walk > by_auto | med_house_income < 40000)

select(low_inc_or_walk, by_walk, by_auto, med_house_income)

## # A tibble: 224 x 3
##    by_walk by_auto med_house_income
##      <dbl>   <dbl>            <dbl>
##  1 0.0959    0.810            37093
##  2 0.102     0.800            31465
##  3 0.0478    0.813            14604
##  4 0.144     0.647            34940
##  5 0.0541    0.831            26615
##  6 0.0345    0.931            37935
##  7 0.0430    0.750            16400
##  8 0.0543    0.785            19548
##  9 0.00469   0.944            34821
## 10 0         0.955            34697
## # … with 214 more rows
…
