Chapter 21 Visualizing beyond 2-dimensions | Urban Informatics Toolkit
…
color -> continuous or discrete

shape -> discrete

size -> continuous

21.1 Color

Let us first take a look at the use of color. Color is, after position, the easiest visual cue for we humans to distinguish (that viz book on my coffee table) between. It is also a rather versatile visual cue as it can be used to address both continuous and discrete variables. We will first explore the use of color for discrete measurements. In this context, I do not necessarily mean discrete as in integers, but more or less groups. This is where there is not necessarily an order or scale implied in the data. It can however be indicative of order—think for example age groups. To explore the use of color for groups or discrete data, we will look at Boston ecometrics of social disorder as discussed previously (O’Brien 2015 CITE NEEDED). Ecometrics are stored in the uitk package as the object ecometrics

library(tidyverse)
library(uitk)

ecometrics
#> # A tibble: 68 x 4
#>    type                measure   year     n
#>    <chr>               <chr>    <dbl> <dbl>
#>  1 armed robbery       violence  2015   430
#>  2 armed robbery       violence  2016   445
#>  3 armed robbery       violence  2017   413
#>  4 armed robbery       violence  2018   307
#>  5 assault and battery guns      2015   122
#>  6 assault and battery guns      2016   190
#>  7 assault and battery guns      2017   162
#>  8 assault and battery guns      2018   169
#>  9 assault and battery violence  2015  5770
#> 10 assault and battery violence  2016  6021
#> # … with 58 more rows
…
