Chapter 4 Visual Analysis | Urban Informatics Toolkit
…
one of the major problems is that some populations are under-represented

https://prospect.org/economy/insidious-way-underrepresent-minorities/

4.4 A first visualization

What is the relationship between education and income?

we have a data frame loaded
this is very similar to a table in excel
each column is a variable

acs_edu
## # A tibble: 1,456 x 7
##    med_house_income less_than_hs hs_grad some_coll  bach white   black
##               <dbl>        <dbl>   <dbl>     <dbl> <dbl> <dbl>   <dbl>
##  1           105735       0.0252   0.196     0.221 0.325 0.897 0.0122 
##  2            69625       0.0577   0.253     0.316 0.262 0.885 0.0171 
##  3            70679       0.0936   0.173     0.273 0.267 0.733 0.0795 
##  4            74528       0.0843   0.253     0.353 0.231 0.824 0.0306 
##  5            52885       0.145    0.310     0.283 0.168 0.737 0.0605 
##  6            64100       0.0946   0.294     0.317 0.192 0.966 0.00256
##  7            37093       0.253    0.394     0.235 0.101 0.711 0.0770 
##  8            87750       0.0768   0.187     0.185 0.272 0.759 0.0310 
##  9            97417       0.0625   0.254     0.227 0.284 0.969 0.00710
## 10            43384       0.207    0.362     0.262 0.124 0.460 0.105  
## # … with 1,446 more rows
…
